Ontario Map
…
lat_lon_convert %>% 
  mutate(lat = x, 
         lon = y, 
         health_unit = ont_cases_loc$Reporting_PHU,
         cases = ont_cases_loc$cases) -> open_map_plot

open_map_plot %>% 
  filter(lon < 5800000) %>% 
  filter(lat < -8400000)-> open_map_plot_1

ont_cases_loc %>% 
  arrange(desc(lat))

## # A tibble: 34 x 4
##    Reporting_PHU                              cases  long   lat
##    <fct>                                      <int> <dbl> <dbl>
##  1 Northwestern Health Unit                      15 -94.5  49.8
##  2 Porcupine Health Unit                         59 -81.3  48.5
##  3 Thunder Bay District Health Unit              74 -89.3  48.4
##  4 Timiskaming Health Unit                       18 -79.7  47.5
##  5 Algoma Public Health Unit                     13 -84.3  46.5
##  6 Sudbury & District Health Unit                57 -81.0  46.5
##  7 North Bay Parry Sound District Health Unit    14 -79.5  46.3
##  8 Renfrew County and District Health Unit       16 -77.1  45.8
##  9 Ottawa Public Health                        1372 -75.8  45.3
## 10 Eastern Ontario Health Unit                   92 -74.7  45.0
## # ... with 24 more rows
…
