Ontario Cases - OSM Map
…
To start, let’s look at a basis map of the lat and lon coordinates in a scatter plot. In order to do that, we need to summarize the data by the lat and lon coordinates of the reporting Ontario Health Units. This new data will count all the cases processed at the health unit and keep the lat and lon coordinates of each of the health units for a map.

ont_cases_loc <- 
ont_cases_clean %>% # Start with our cleaned data
  group_by(Reporting_PHU) %>%  # Group each case by the Health Unit
  summarise(cases = n(), # Count How many cases at each unit using n()
            lat = mean(lat), # create a variable lat (note that I needed to use mean because it aggregates all the data)
            lon = mean(lon) # create a variable lon (note that I needed to use mean because it aggregates all the data)
            ) %>% 
  ungroup() # Ungroups the data to make it a data class rather than grouped data

ont_cases_loc %>% 
  arrange(desc(cases))

## # A tibble: 34 x 4
##    Reporting_PHU                           cases   lat   lon
##    <fct>                                   <int> <dbl> <dbl>
##  1 Toronto Public Health                    5039  43.7 -79.4
##  2 Peel Public Health                       2345  43.6 -79.7
##  3 York Region Public Health Services       1523  44.0 -79.5
##  4 Ottawa Public Health                     1372  45.3 -75.8
##  5 Durham Region Health Department           963  43.9 -78.9
##  6 Region of Waterloo, Public Health         694  43.5 -80.5
##  7 Windsor-Essex County Health Unit          589  42.3 -83.0
##  8 Niagara Region Public Health Department   485  43.1 -79.2
##  9 Halton Region Health Department           458  43.4 -79.7
## 10 Hamilton Public Health Services           425  43.3 -79.9
## # ... with 24 more rows
…
